…
In this lesson, we will learn how to use the bindinding join functions from dplyr package. Let’s import the required libraries

library(here)
library(dplyr)
library(readr)

here we first start with the Gapminder data on HIV. Let’s import and explore the dataframe.

gapminder_hiv_full <- 
  read_csv(file = here("chapter_xxx_tidy_data/data/gapminder_hiv_full.csv"))

gapminder_hiv_full

## # A tibble: 149 x 23
##    country `1990` `1991` `1992` `1993` `1994` `1995` `1996` `1997` `1998` `1999`
##    <chr>   <chr>  <chr>  <chr>  <chr>  <chr>  <chr>  <chr>  <chr>  <chr>  <chr> 
##  1 Afghan~ 60     60     60     60     60     150    150    150    150    150   
##  2 Angola  600    1200   1800   2500   3300   4300   5300   6300   7300   8200  
##  3 Argent~ 3000   3200   3400   3600   3800   3500   3200   3100   3000   3000  
##  4 Armenia 60     60     60     60     60     60     60     60     60     150   
##  5 Austra~ 350    600    600    600    600    600    600    350    350    350   
##  6 Austria 60     60     60     60     60     60     60     60     60     60    
##  7 Azerba~ 60     60     60     60     60     60     60     60     60     60    
##  8 Burundi 3900   4900   6000   7300   8600   9800   11k    12k    12k    13k   
##  9 Belgium 60     60     60     60     60     60     150    150    60     60    
## 10 Benin   120    300    300    300    600    600    1300   1700   2200   2600  
## # ... with 139 more rows, and 12 more variables: 2000 <chr>, 2001 <chr>,
## #   2002 <chr>, 2003 <chr>, 2004 <chr>, 2005 <chr>, 2006 <chr>, 2007 <chr>,
## #   2008 <chr>, 2009 <chr>, 2010 <chr>, 2011 <chr>
…
