…
yaounde_2 <- 
  yaounde %>%
  select("id_quest", "loc_hhld_area", "loc_hhld_lat", "loc_hhld_long") %>%
  slice(2:20)

The yaounde_1 dataframe columns refer to the number of rooms (n_hhld_rooms), adults (n_hhld_adults) and children (n_hhld_children) in a specific household, while yaounde_2 reports some geographical information about the household location i.e. name of the area (loc_hhld_area), latitude (loc_hhld_lat ) and longitude (loc_hhld_long). Both dataframes contain a unique index (id_quest) that is the criteria that we can use to join our data i.e. every row on the right dataframe will be matched with a row on the left dataframe whenever the id_quest is the same. Let’s try

yaounde_lj <-
  left_join(yaounde_1, yaounde_2, by = "id_quest")

yaounde_lj

## # A tibble: 24 x 7
##    id_quest             n_hhld_rooms n_hhld_adults n_hhld_children loc_hhld_area
##    <chr>                       <dbl>         <dbl>           <dbl> <chr>        
##  1 CARRIERE/NUM/002/00~            2             3               1 carriere     
##  2 CARRIERE/NUM/002/00~            2             3               1 carriere     
##  3 CARRIERE/NUM/038/00~            5             2               4 carriere     
##  4 CARRIERE/NUM/038/00~            5             2               4 carriere     
##  5 CARRIERE/NUM/015/00~            4             6               1 carriere     
##  6 CARRIERE/NUM/005/00~            4             2               2 carriere     
##  7 BRIQUETERIE/NUM/012~            5             8               4 briqueterie  
##  8 BRIQUETERIE/NUM/019~            7             7               1 briqueterie  
##  9 CARRIERE/NUM/014/00~            4             5               0 carriere     
## 10 BRIQUETERIE/NUM/014~            4             6               0 briqueterie  
## # ... with 14 more rows, and 2 more variables: loc_hhld_lat <dbl>,
## #   loc_hhld_long <dbl>
…
Let’s illustrate one last scenario i.e. when the right dataframe contains more matches with the left dataframe. Here below we modify yaounde_2 by duplicating each row

yaounde_2 <- 
  yaounde_2 %>% 
  slice(rep(1:n(), each = 2))  

let’s the the left_join()

yaounde_lj_duplicates <-
  left_join(yaounde_1, yaounde_2, by = "id_quest")

yaounde_lj_duplicates

## # A tibble: 43 x 7
##    id_quest             n_hhld_rooms n_hhld_adults n_hhld_children loc_hhld_area
##    <chr>                       <dbl>         <dbl>           <dbl> <chr>        
##  1 CARRIERE/NUM/002/00~            2             3               1 carriere     
##  2 CARRIERE/NUM/002/00~            2             3               1 carriere     
##  3 CARRIERE/NUM/002/00~            2             3               1 carriere     
##  4 CARRIERE/NUM/002/00~            2             3               1 carriere     
##  5 CARRIERE/NUM/038/00~            5             2               4 carriere     
##  6 CARRIERE/NUM/038/00~            5             2               4 carriere     
##  7 CARRIERE/NUM/038/00~            5             2               4 carriere     
##  8 CARRIERE/NUM/038/00~            5             2               4 carriere     
##  9 CARRIERE/NUM/015/00~            4             6               1 carriere     
## 10 CARRIERE/NUM/015/00~            4             6               1 carriere     
## # ... with 33 more rows, and 2 more variables: loc_hhld_lat <dbl>,
## #   loc_hhld_long <dbl>
…
