…
Source: PsyTeachR

yaounde_full_j <-
  full_join(yaounde_1, yaounde_2, by = "id_quest")

yaounde_full_j

## # A tibble: 24 x 7
##    id_quest             n_hhld_rooms n_hhld_adults n_hhld_children loc_hhld_area
##    <chr>                       <dbl>         <dbl>           <dbl> <chr>        
##  1 CARRIERE/NUM/002/00~            2             3               1 carriere     
##  2 CARRIERE/NUM/002/00~            2             3               1 carriere     
##  3 CARRIERE/NUM/038/00~            5             2               4 carriere     
##  4 CARRIERE/NUM/038/00~            5             2               4 carriere     
##  5 CARRIERE/NUM/015/00~            4             6               1 carriere     
##  6 CARRIERE/NUM/005/00~            4             2               2 carriere     
##  7 BRIQUETERIE/NUM/012~            5             8               4 briqueterie  
##  8 BRIQUETERIE/NUM/019~            7             7               1 briqueterie  
##  9 CARRIERE/NUM/014/00~            4             5               0 carriere     
## 10 BRIQUETERIE/NUM/014~            4             6               0 briqueterie  
## # ... with 14 more rows, and 2 more variables: loc_hhld_lat <dbl>,
## #   loc_hhld_long <dbl>
…
