…
#istall the package if you have not done it yet
#install.packages("tidyr")
library(tidyr)

1.2.1 pivot_longer

with pivot_longer() we can turn wide data into long format. We can test the function with gapminder data

gapminder_long <- 
  gapminder %>%
  pivot_longer(!country, names_to = "year", values_to = "deaths")

gapminder_long

## # A tibble: 3,278 x 3
##    country     year  deaths
##    <chr>       <chr> <chr> 
##  1 Afghanistan 1990  60    
##  2 Afghanistan 1991  60    
##  3 Afghanistan 1992  60    
##  4 Afghanistan 1993  60    
##  5 Afghanistan 1994  60    
##  6 Afghanistan 1995  150   
##  7 Afghanistan 1996  150   
##  8 Afghanistan 1997  150   
##  9 Afghanistan 1998  150   
## 10 Afghanistan 1999  150   
## # ... with 3,268 more rows

Let’s check step by step what we have done. Writing !country we tell to pivot_longer() to make long all the column but country. This is the easier solution but sometimes you may want to make your data long based on a subset of variables. In such cases, you can use the attribute cols and specify either the columns range by position or by name.

gapminder_long <- 
  gapminder %>%
  pivot_longer(cols = 2:23 , names_to = "year", values_to = "deaths")

gapminder_long

## # A tibble: 3,278 x 3
##    country     year  deaths
##    <chr>       <chr> <chr> 
##  1 Afghanistan 1990  60    
##  2 Afghanistan 1991  60    
##  3 Afghanistan 1992  60    
##  4 Afghanistan 1993  60    
##  5 Afghanistan 1994  60    
##  6 Afghanistan 1995  150   
##  7 Afghanistan 1996  150   
##  8 Afghanistan 1997  150   
##  9 Afghanistan 1998  150   
## 10 Afghanistan 1999  150   
## # ... with 3,268 more rows

gapminder_long <- 
  gapminder %>%
  pivot_longer(cols = "1990":"2011" , names_to = "year", values_to = "deaths")

gapminder_long

## # A tibble: 3,278 x 3
##    country     year  deaths
##    <chr>       <chr> <chr> 
##  1 Afghanistan 1990  60    
##  2 Afghanistan 1991  60    
##  3 Afghanistan 1992  60    
##  4 Afghanistan 1993  60    
##  5 Afghanistan 1994  60    
##  6 Afghanistan 1995  150   
##  7 Afghanistan 1996  150   
##  8 Afghanistan 1997  150   
##  9 Afghanistan 1998  150   
## 10 Afghanistan 1999  150   
## # ... with 3,268 more rows

the attribute names_to simply defines the new variable names and (in this case is “year”) and values_to defines the variable name where the values are stored

1.2.2 pivot_wider

now we can try to make the GBD data longer using pivot_wider. As we mentioned above, long format is unique while for wide data we can reshape the dataframe in multiple way. Let’s try to make wide the variable “cause” i.e. every cause is on a separate column

GBD_wide <- 
  GBD %>%
  pivot_wider(names_from = "cause",
              values_from = "val")

GBD_wide

## # A tibble: 320 x 16
##    measure location sex    age    metric  year `Nutritional de~ `Sexually trans~
##    <chr>   <chr>    <chr>  <chr>  <chr>  <dbl>            <dbl>            <dbl>
##  1 Deaths  Benin    Male   1 to 4 Number  2015           214.             1.15  
##  2 Deaths  Benin    Female 1 to 4 Number  2015           237.             1.00  
##  3 Deaths  Benin    Male   5 to 9 Number  2015            10.5            0.452 
##  4 Deaths  Benin    Female 5 to 9 Number  2015            11.6            0.457 
##  5 Deaths  Benin    Male   10 to~ Number  2015             3.46           0.0994
##  6 Deaths  Benin    Female 10 to~ Number  2015             5.32           0.573 
##  7 Deaths  Benin    Male   15 to~ Number  2015             2.61           0.0644
##  8 Deaths  Benin    Female 15 to~ Number  2015             3.17           0.594 
##  9 Deaths  Benin    Male   20 to~ Number  2015             3.08           0.0491
## 10 Deaths  Benin    Female 20 to~ Number  2015             3.14           1.42  
## # ... with 310 more rows, and 8 more variables: Acute hepatitis <dbl>,
## #   HIV/AIDS and sexually transmitted infections <dbl>,
## #   Respiratory infections and tuberculosis <dbl>, Enteric infections <dbl>,
## #   Other infectious diseases <dbl>, Typhoid and paratyphoid <dbl>,
## #   Neglected tropical diseases and malaria <dbl>, Leishmaniasis <dbl>

The only two attributes that we need here are names_from, where we specify the variables we want to make wide, and values_from i.e. the column where the values will be stored (val in this example). When there are multiple variables, those that are not inside the argument names_from will not be turned wide e.g. GBD_wide still shows the variables “measure”, “location”, “sex”, “metric” and “year”. Important, the argument names_from can take multiple variables allowing you to create more complicated nested tables. Let’s try to use both “cause” and “sex” variables

GBD_wide <- 
  GBD %>%
  pivot_wider(names_from = c("cause", "sex"),
               values_from = "val")

GBD_wide

## # A tibble: 160 x 25
##    measure location age      metric  year `Nutritional defic~ `Nutritional defi~
##    <chr>   <chr>    <chr>    <chr>  <dbl>               <dbl>              <dbl>
##  1 Deaths  Benin    1 to 4   Number  2015              214.               237.  
##  2 Deaths  Benin    5 to 9   Number  2015               10.5               11.6 
##  3 Deaths  Benin    10 to 14 Number  2015                3.46               5.32
##  4 Deaths  Benin    15 to 19 Number  2015                2.61               3.17
##  5 Deaths  Benin    20 to 24 Number  2015                3.08               3.14
##  6 Deaths  Benin    25 to 29 Number  2015                2.52               5.37
##  7 Deaths  Benin    30 to 34 Number  2015                3.55               2.61
##  8 Deaths  Benin    35 to 39 Number  2015                3.22               3.97
##  9 Deaths  Benin    40 to 44 Number  2015                4.23               3.89
## 10 Deaths  Benin    45 to 49 Number  2015                5.39               3.65
## # ... with 150 more rows, and 18 more variables:
## #   Sexually transmitted infections excluding HIV_Male <dbl>,
## #   Sexually transmitted infections excluding HIV_Female <dbl>,
## #   Acute hepatitis_Male <dbl>, Acute hepatitis_Female <dbl>,
## #   HIV/AIDS and sexually transmitted infections_Male <dbl>,
## #   HIV/AIDS and sexually transmitted infections_Female <dbl>,
## #   Respiratory infections and tuberculosis_Male <dbl>, ...
…
The column “id_quest” contains the unique identifier for each participant in the study. As you can see, “id_quest” contains multiple information separated by the character “/”. For instance, if we look at the first row (CARRIERE/NUM/002/0001), the respective information are the “area” (CARRIERE), the metric (NUM), the family code (002) and (0001) is the number of individuals within the family

What if we want to have that information separated into different columns? We can simply use the function separate()

yaounde <-
  yaounde %>%
  separate(col = id_quest,                
           into = c("area", "metric", "family", "individuals"))

yaounde

## # A tibble: 24 x 7
##    area     metric family individuals n_hhld_rooms n_hhld_adults n_hhld_children
##    <chr>    <chr>  <chr>  <chr>              <dbl>         <dbl>           <dbl>
##  1 CARRIERE NUM    002    0001                   2             3               1
##  2 CARRIERE NUM    002    0002                   2             3               1
##  3 CARRIERE NUM    038    0002                   5             2               4
##  4 CARRIERE NUM    038    0006                   5             2               4
##  5 CARRIERE NUM    015    0002                   4             6               1
##  6 CARRIERE NUM    005    0002                   4             2               2
##  7 BRIQUET~ NUM    012    0001                   5             8               4
##  8 BRIQUET~ NUM    019    0004                   7             7               1
##  9 CARRIERE NUM    014    0004                   4             5               0
## 10 BRIQUET~ NUM    014    0006                   4             6               0
## # ... with 14 more rows
…
/

:

Sometimes this might not be the case, and separate() allows you to choose the separator with the argument sep. For instance, you might want to split the “metric” column into 2 columns separating it by the letter “U”

yaounde <-
  yaounde %>%
  separate(col = metric,
           sep = "U",
           into = c("x", "y"))

yaounde

## # A tibble: 24 x 8
##    area        x     y     family individuals n_hhld_rooms n_hhld_adults
##    <chr>       <chr> <chr> <chr>  <chr>              <dbl>         <dbl>
##  1 CARRIERE    N     M     002    0001                   2             3
##  2 CARRIERE    N     M     002    0002                   2             3
##  3 CARRIERE    N     M     038    0002                   5             2
##  4 CARRIERE    N     M     038    0006                   5             2
##  5 CARRIERE    N     M     015    0002                   4             6
##  6 CARRIERE    N     M     005    0002                   4             2
##  7 BRIQUETERIE N     M     012    0001                   5             8
##  8 BRIQUETERIE N     M     019    0004                   7             7
##  9 CARRIERE    N     M     014    0004                   4             5
## 10 BRIQUETERIE N     M     014    0006                   4             6
## # ... with 14 more rows, and 1 more variable: n_hhld_children <dbl>

One last chance to separate the columns is before or after a certain number of characters. Here below we want to separate the “area” column in order to retain the first 3 initials

yaounde <-
  yaounde %>%
  separate(col = area,
           sep = 3,
           into = c("a", "b"))

yaounde

## # A tibble: 24 x 9
##    a     b        x     y     family individuals n_hhld_rooms n_hhld_adults
##    <chr> <chr>    <chr> <chr> <chr>  <chr>              <dbl>         <dbl>
##  1 CAR   RIERE    N     M     002    0001                   2             3
##  2 CAR   RIERE    N     M     002    0002                   2             3
##  3 CAR   RIERE    N     M     038    0002                   5             2
##  4 CAR   RIERE    N     M     038    0006                   5             2
##  5 CAR   RIERE    N     M     015    0002                   4             6
##  6 CAR   RIERE    N     M     005    0002                   4             2
##  7 BRI   QUETERIE N     M     012    0001                   5             8
##  8 BRI   QUETERIE N     M     019    0004                   7             7
##  9 CAR   RIERE    N     M     014    0004                   4             5
## 10 BRI   QUETERIE N     M     014    0006                   4             6
## # ... with 14 more rows, and 1 more variable: n_hhld_children <dbl>

defining sep = 3 the function will consider the first 3 elements from the left to make the separation. It is also possible to use a negative number that will make the function count starting from the last character

yaounde <-
  yaounde %>%
  separate(col = b,
           sep = -2,
           into = c("b", "c"))

yaounde

## # A tibble: 24 x 10
##    a     b      c     x     y     family individuals n_hhld_rooms n_hhld_adults
##    <chr> <chr>  <chr> <chr> <chr> <chr>  <chr>              <dbl>         <dbl>
##  1 CAR   RIE    RE    N     M     002    0001                   2             3
##  2 CAR   RIE    RE    N     M     002    0002                   2             3
##  3 CAR   RIE    RE    N     M     038    0002                   5             2
##  4 CAR   RIE    RE    N     M     038    0006                   5             2
##  5 CAR   RIE    RE    N     M     015    0002                   4             6
##  6 CAR   RIE    RE    N     M     005    0002                   4             2
##  7 BRI   QUETER IE    N     M     012    0001                   5             8
##  8 BRI   QUETER IE    N     M     019    0004                   7             7
##  9 CAR   RIE    RE    N     M     014    0004                   4             5
## 10 BRI   QUETER IE    N     M     014    0006                   4             6
## # ... with 14 more rows, and 1 more variable: n_hhld_children <dbl>

1.3.2 unite

As we can separate columns, we can also unite columns with the unite() function. Let’s unite again the x and y columns into the “metric” column

yaounde <-
  yaounde %>%
  unite(col = "metric",
        x, y,
        sep = "U")

yaounde

## # A tibble: 24 x 9
##    a     b      c     metric family individuals n_hhld_rooms n_hhld_adults
##    <chr> <chr>  <chr> <chr>  <chr>  <chr>              <dbl>         <dbl>
##  1 CAR   RIE    RE    NUM    002    0001                   2             3
##  2 CAR   RIE    RE    NUM    002    0002                   2             3
##  3 CAR   RIE    RE    NUM    038    0002                   5             2
##  4 CAR   RIE    RE    NUM    038    0006                   5             2
##  5 CAR   RIE    RE    NUM    015    0002                   4             6
##  6 CAR   RIE    RE    NUM    005    0002                   4             2
##  7 BRI   QUETER IE    NUM    012    0001                   5             8
##  8 BRI   QUETER IE    NUM    019    0004                   7             7
##  9 CAR   RIE    RE    NUM    014    0004                   4             5
## 10 BRI   QUETER IE    NUM    014    0006                   4             6
## # ... with 14 more rows, and 1 more variable: n_hhld_children <dbl>

Now, the argument col defines the new column name after the union of the other columns (x and y in this example). Here the sep argument is used to define the character that will separate the new column values and its default is “_”. If you don’t want a separator you can define it as an empty space i.e. sep = ““.

yaounde <-
  yaounde %>%
  unite(col = "dafa",
        n_hhld_rooms, n_hhld_adults,
        sep = "")

yaounde

## # A tibble: 24 x 8
##    a     b      c     metric family individuals dafa  n_hhld_children
##    <chr> <chr>  <chr> <chr>  <chr>  <chr>       <chr>           <dbl>
##  1 CAR   RIE    RE    NUM    002    0001        23                  1
##  2 CAR   RIE    RE    NUM    002    0002        23                  1
##  3 CAR   RIE    RE    NUM    038    0002        52                  4
##  4 CAR   RIE    RE    NUM    038    0006        52                  4
##  5 CAR   RIE    RE    NUM    015    0002        46                  1
##  6 CAR   RIE    RE    NUM    005    0002        42                  2
##  7 BRI   QUETER IE    NUM    012    0001        58                  4
##  8 BRI   QUETER IE    NUM    019    0004        77                  1
##  9 CAR   RIE    RE    NUM    014    0004        45                  0
## 10 BRI   QUETER IE    NUM    014    0006        46                  0
## # ... with 14 more rows
…
